Crime in the Time of Covid
…
 pivot_data <- corr_data %>% pivot_longer(!c(`COVID-19 Deaths`,`COVID 19 Deaths Per Capita`),
                                          
    names_to = "Factor", 
    values_to = "Percent_Change",
  )

 pivot_data

## # A tibble: 200 x 4
##    `COVID-19 Deaths` `COVID 19 Deaths Per Ca~ Factor              Percent_Change
##                <dbl>                    <dbl> <chr>                        <dbl>
##  1              6706                    133.  Property Crime % C~        -0.638 
##  2              6706                    133.  Aggravated Assualt~         6.09  
##  3              6706                    133.  Murder % Change             1     
##  4              6706                    133.  UnemploymentRate_c~         0.492 
##  5               254                     34.6 Property Crime % C~        -0.203 
##  6               254                     34.6 Aggravated Assualt~         0.0197
##  7               254                     34.6 Murder % Change            -0.283 
##  8               254                     34.6 UnemploymentRate_c~         0.308 
##  9              9321                    130.  Property Crime % C~        -0.0922
## 10              9321                    130.  Aggravated Assualt~         0.0181
## # ... with 190 more rows
…
  pivot_data

## # A tibble: 200 x 4
##    `COVID-19 Deaths` `COVID 19 Deaths Per Ca~ Factor              Percent_Change
##                <dbl>                    <dbl> <chr>                        <dbl>
##  1              6706                    133.  Property Crime % C~        -0.638 
##  2              6706                    133.  Aggravated Assualt~         6.09  
##  3              6706                    133.  Murder % Change             1     
##  4              6706                    133.  UnemploymentRate_c~         0.492 
##  5               254                     34.6 Property Crime % C~        -0.203 
##  6               254                     34.6 Aggravated Assualt~         0.0197
##  7               254                     34.6 Murder % Change            -0.283 
##  8               254                     34.6 UnemploymentRate_c~         0.308 
##  9              9321                    130.  Property Crime % C~        -0.0922
## 10              9321                    130.  Aggravated Assualt~         0.0181
## # ... with 190 more rows
…
 pivot_data 

## # A tibble: 200 x 4
##    `COVID-19 Deaths` `COVID 19 Deaths Per Ca~ Factor              Percent_Change
##                <dbl>                    <dbl> <chr>                        <dbl>
##  1              6706                    133.  Property Crime % C~        -0.638 
##  2              6706                    133.  Aggravated Assualt~         6.09  
##  3              6706                    133.  Murder % Change             1     
##  4              6706                    133.  UnemploymentRate_c~         0.492 
##  5               254                     34.6 Property Crime % C~        -0.203 
##  6               254                     34.6 Aggravated Assualt~         0.0197
##  7               254                     34.6 Murder % Change            -0.283 
##  8               254                     34.6 UnemploymentRate_c~         0.308 
##  9              9321                    130.  Property Crime % C~        -0.0922
## 10              9321                    130.  Aggravated Assualt~         0.0181
## # ... with 190 more rows
…
